"Sepal.Length","Sepal.Width","Petal.Length","Petal.Width","Species","Color","Toxicity"
5.1,3.5,1.4,0.2,"setosa","red","Toxic"
5.1,3.5,1.4,0.2,"setosa","green",NA
5.1,3.5,1.4,0.2,"setosa","blue",NA
5.1,3.5,1.4,0.2,"setosa","orange","NonToxic"
5.1,3.5,1.4,0.2,"setosa","purple","Toxic"
4.9,3,1.4,0.2,"setosa","red","Toxic"
4.9,3,1.4,0.2,"setosa","green",NA
4.9,3,1.4,0.2,"setosa","blue",NA
4.9,3,1.4,0.2,"setosa","orange","NonToxic"
4.9,3,1.4,0.2,"setosa","purple","Toxic"
4.7,3.2,1.3,0.2,"setosa","red","Toxic"
4.7,3.2,1.3,0.2,"setosa","green",NA
4.7,3.2,1.3,0.2,"setosa","blue",NA
4.7,3.2,1.3,0.2,"setosa","orange","NonToxic"
4.7,3.2,1.3,0.2,"setosa","purple","Toxic"
4.6,3.1,1.5,0.2,"setosa","red","Toxic"
4.6,3.1,1.5,0.2,"setosa","green",NA
4.6,3.1,1.5,0.2,"setosa","blue",NA
4.6,3.1,1.5,0.2,"setosa","orange","NonToxic"
4.6,3.1,1.5,0.2,"setosa","purple","Toxic"
5,3.6,1.4,0.2,"setosa","red","Toxic"
5,3.6,1.4,0.2,"setosa","green",NA
5,3.6,1.4,0.2,"setosa","blue",NA
5,3.6,1.4,0.2,"setosa","orange","NonToxic"
5,3.6,1.4,0.2,"setosa","purple","Toxic"
5.4,3.9,1.7,0.4,"setosa","red","Toxic"
5.4,3.9,1.7,0.4,"setosa","green",NA
5.4,3.9,1.7,0.4,"setosa","blue",NA
5.4,3.9,1.7,0.4,"setosa","orange","NonToxic"
5.4,3.9,1.7,0.4,"setosa","purple","Toxic"
4.6,3.4,1.4,0.3,"setosa","red","Toxic"
4.6,3.4,1.4,0.3,"setosa","green",NA
4.6,3.4,1.4,0.3,"setosa","blue",NA
4.6,3.4,1.4,0.3,"setosa","orange","NonToxic"
4.6,3.4,1.4,0.3,"setosa","purple","Toxic"
5,3.4,1.5,0.2,"setosa","red","Toxic"
5,3.4,1.5,0.2,"setosa","green",NA
5,3.4,1.5,0.2,"setosa","blue",NA
5,3.4,1.5,0.2,"setosa","orange","NonToxic"
5,3.4,1.5,0.2,"setosa","purple","Toxic"
4.4,2.9,1.4,0.2,"setosa","red","Toxic"
4.4,2.9,1.4,0.2,"setosa","green",NA
4.4,2.9,1.4,0.2,"setosa","blue",NA
4.4,2.9,1.4,0.2,"setosa","orange","NonToxic"
4.4,2.9,1.4,0.2,"setosa","purple","Toxic"
4.9,3.1,1.5,0.1,"setosa","red","Toxic"
4.9,3.1,1.5,0.1,"setosa","green",NA
4.9,3.1,1.5,0.1,"setosa","blue",NA
4.9,3.1,1.5,0.1,"setosa","orange","NonToxic"
4.9,3.1,1.5,0.1,"setosa","purple","Toxic"
5.4,3.7,1.5,0.2,"setosa","red","Toxic"
5.4,3.7,1.5,0.2,"setosa","green",NA
5.4,3.7,1.5,0.2,"setosa","blue",NA
5.4,3.7,1.5,0.2,"setosa","orange","NonToxic"
5.4,3.7,1.5,0.2,"setosa","purple","Toxic"
4.8,3.4,1.6,0.2,"setosa","red","Toxic"
4.8,3.4,1.6,0.2,"setosa","green",NA
4.8,3.4,1.6,0.2,"setosa","blue",NA
4.8,3.4,1.6,0.2,"setosa","orange","NonToxic"
4.8,3.4,1.6,0.2,"setosa","purple","Toxic"
4.8,3,1.4,0.1,"setosa","red","Toxic"
4.8,3,1.4,0.1,"setosa","green",NA
4.8,3,1.4,0.1,"setosa","blue",NA
4.8,3,1.4,0.1,"setosa","orange","NonToxic"
4.8,3,1.4,0.1,"setosa","purple","Toxic"
4.3,3,1.1,0.1,"setosa","red","Toxic"
4.3,3,1.1,0.1,"setosa","green",NA
4.3,3,1.1,0.1,"setosa","blue",NA
4.3,3,1.1,0.1,"setosa","orange","NonToxic"
4.3,3,1.1,0.1,"setosa","purple","Toxic"
5.8,4,1.2,0.2,"setosa","red","Toxic"
5.8,4,1.2,0.2,"setosa","green",NA
5.8,4,1.2,0.2,"setosa","blue",NA
5.8,4,1.2,0.2,"setosa","orange","NonToxic"
5.8,4,1.2,0.2,"setosa","purple","Toxic"
5.7,4.4,1.5,0.4,"setosa","red","Toxic"
5.7,4.4,1.5,0.4,"setosa","green",NA
5.7,4.4,1.5,0.4,"setosa","blue",NA
5.7,4.4,1.5,0.4,"setosa","orange","NonToxic"
5.7,4.4,1.5,0.4,"setosa","purple","Toxic"
5.4,3.9,1.3,0.4,"setosa","red","Toxic"
5.4,3.9,1.3,0.4,"setosa","green",NA
5.4,3.9,1.3,0.4,"setosa","blue",NA
5.4,3.9,1.3,0.4,"setosa","orange","NonToxic"
5.4,3.9,1.3,0.4,"setosa","purple","Toxic"
5.1,3.5,1.4,0.3,"setosa","red","Toxic"
5.1,3.5,1.4,0.3,"setosa","green",NA
5.1,3.5,1.4,0.3,"setosa","blue",NA
5.1,3.5,1.4,0.3,"setosa","orange","NonToxic"
5.1,3.5,1.4,0.3,"setosa","purple","Toxic"
5.7,3.8,1.7,0.3,"setosa","red","Toxic"
5.7,3.8,1.7,0.3,"setosa","green",NA
5.7,3.8,1.7,0.3,"setosa","blue",NA
5.7,3.8,1.7,0.3,"setosa","orange","NonToxic"
5.7,3.8,1.7,0.3,"setosa","purple","Toxic"
5.1,3.8,1.5,0.3,"setosa","red","Toxic"
5.1,3.8,1.5,0.3,"setosa","green",NA
5.1,3.8,1.5,0.3,"setosa","blue",NA
5.1,3.8,1.5,0.3,"setosa","orange","NonToxic"
5.1,3.8,1.5,0.3,"setosa","purple","Toxic"
5.4,3.4,1.7,0.2,"setosa","red","Toxic"
5.4,3.4,1.7,0.2,"setosa","green",NA
5.4,3.4,1.7,0.2,"setosa","blue",NA
5.4,3.4,1.7,0.2,"setosa","orange","NonToxic"
5.4,3.4,1.7,0.2,"setosa","purple","Toxic"
5.1,3.7,1.5,0.4,"setosa","red","Toxic"
5.1,3.7,1.5,0.4,"setosa","green",NA
5.1,3.7,1.5,0.4,"setosa","blue",NA
5.1,3.7,1.5,0.4,"setosa","orange","NonToxic"
5.1,3.7,1.5,0.4,"setosa","purple","Toxic"
4.6,3.6,1,0.2,"setosa","red","Toxic"
4.6,3.6,1,0.2,"setosa","green",NA
4.6,3.6,1,0.2,"setosa","blue",NA
4.6,3.6,1,0.2,"setosa","orange","NonToxic"
4.6,3.6,1,0.2,"setosa","purple","Toxic"
5.1,3.3,1.7,0.5,"setosa","red","Toxic"
5.1,3.3,1.7,0.5,"setosa","green",NA
5.1,3.3,1.7,0.5,"setosa","blue",NA
5.1,3.3,1.7,0.5,"setosa","orange","NonToxic"
5.1,3.3,1.7,0.5,"setosa","purple","Toxic"
4.8,3.4,1.9,0.2,"setosa","red","Toxic"
4.8,3.4,1.9,0.2,"setosa","green",NA
4.8,3.4,1.9,0.2,"setosa","blue",NA
4.8,3.4,1.9,0.2,"setosa","orange","NonToxic"
4.8,3.4,1.9,0.2,"setosa","purple","Toxic"
5,3,1.6,0.2,"setosa","red","Toxic"
5,3,1.6,0.2,"setosa","green",NA
5,3,1.6,0.2,"setosa","blue",NA
5,3,1.6,0.2,"setosa","orange","NonToxic"
5,3,1.6,0.2,"setosa","purple","Toxic"
5,3.4,1.6,0.4,"setosa","red","Toxic"
5,3.4,1.6,0.4,"setosa","green",NA
5,3.4,1.6,0.4,"setosa","blue",NA
5,3.4,1.6,0.4,"setosa","orange","NonToxic"
5,3.4,1.6,0.4,"setosa","purple","Toxic"
5.2,3.5,1.5,0.2,"setosa","red","Toxic"
5.2,3.5,1.5,0.2,"setosa","green",NA
5.2,3.5,1.5,0.2,"setosa","blue",NA
5.2,3.5,1.5,0.2,"setosa","orange","NonToxic"
5.2,3.5,1.5,0.2,"setosa","purple","Toxic"
5.2,3.4,1.4,0.2,"setosa","red","Toxic"
5.2,3.4,1.4,0.2,"setosa","green",NA
5.2,3.4,1.4,0.2,"setosa","blue",NA
5.2,3.4,1.4,0.2,"setosa","orange","NonToxic"
5.2,3.4,1.4,0.2,"setosa","purple","Toxic"
4.7,3.2,1.6,0.2,"setosa","red","Toxic"
4.7,3.2,1.6,0.2,"setosa","green",NA
4.7,3.2,1.6,0.2,"setosa","blue",NA
4.7,3.2,1.6,0.2,"setosa","orange","NonToxic"
4.7,3.2,1.6,0.2,"setosa","purple","Toxic"
4.8,3.1,1.6,0.2,"setosa","red","Toxic"
4.8,3.1,1.6,0.2,"setosa","green",NA
4.8,3.1,1.6,0.2,"setosa","blue",NA
4.8,3.1,1.6,0.2,"setosa","orange","NonToxic"
4.8,3.1,1.6,0.2,"setosa","purple","Toxic"
5.4,3.4,1.5,0.4,"setosa","red","Toxic"
5.4,3.4,1.5,0.4,"setosa","green",NA
5.4,3.4,1.5,0.4,"setosa","blue",NA
5.4,3.4,1.5,0.4,"setosa","orange","NonToxic"
5.4,3.4,1.5,0.4,"setosa","purple","Toxic"
5.2,4.1,1.5,0.1,"setosa","red","Toxic"
5.2,4.1,1.5,0.1,"setosa","green",NA
5.2,4.1,1.5,0.1,"setosa","blue",NA
5.2,4.1,1.5,0.1,"setosa","orange","NonToxic"
5.2,4.1,1.5,0.1,"setosa","purple","Toxic"
5.5,4.2,1.4,0.2,"setosa","red","Toxic"
5.5,4.2,1.4,0.2,"setosa","green",NA
5.5,4.2,1.4,0.2,"setosa","blue",NA
5.5,4.2,1.4,0.2,"setosa","orange","NonToxic"
5.5,4.2,1.4,0.2,"setosa","purple","Toxic"
4.9,3.1,1.5,0.2,"setosa","red","Toxic"
4.9,3.1,1.5,0.2,"setosa","green",NA
4.9,3.1,1.5,0.2,"setosa","blue",NA
4.9,3.1,1.5,0.2,"setosa","orange","NonToxic"
4.9,3.1,1.5,0.2,"setosa","purple","Toxic"
5,3.2,1.2,0.2,"setosa","red","Toxic"
5,3.2,1.2,0.2,"setosa","green",NA
5,3.2,1.2,0.2,"setosa","blue",NA
5,3.2,1.2,0.2,"setosa","orange","NonToxic"
5,3.2,1.2,0.2,"setosa","purple","Toxic"
5.5,3.5,1.3,0.2,"setosa","red","Toxic"
5.5,3.5,1.3,0.2,"setosa","green",NA
5.5,3.5,1.3,0.2,"setosa","blue",NA
5.5,3.5,1.3,0.2,"setosa","orange","NonToxic"
5.5,3.5,1.3,0.2,"setosa","purple","Toxic"
4.9,3.6,1.4,0.1,"setosa","red","Toxic"
4.9,3.6,1.4,0.1,"setosa","green",NA
4.9,3.6,1.4,0.1,"setosa","blue",NA
4.9,3.6,1.4,0.1,"setosa","orange","NonToxic"
4.9,3.6,1.4,0.1,"setosa","purple","Toxic"
4.4,3,1.3,0.2,"setosa","red","Toxic"
4.4,3,1.3,0.2,"setosa","green",NA
4.4,3,1.3,0.2,"setosa","blue",NA
4.4,3,1.3,0.2,"setosa","orange","NonToxic"
4.4,3,1.3,0.2,"setosa","purple","Toxic"
5.1,3.4,1.5,0.2,"setosa","red","Toxic"
5.1,3.4,1.5,0.2,"setosa","green",NA
5.1,3.4,1.5,0.2,"setosa","blue",NA
5.1,3.4,1.5,0.2,"setosa","orange","NonToxic"
5.1,3.4,1.5,0.2,"setosa","purple","Toxic"
5,3.5,1.3,0.3,"setosa","red","Toxic"
5,3.5,1.3,0.3,"setosa","green",NA
5,3.5,1.3,0.3,"setosa","blue",NA
5,3.5,1.3,0.3,"setosa","orange","NonToxic"
5,3.5,1.3,0.3,"setosa","purple","Toxic"
4.5,2.3,1.3,0.3,"setosa","red","Toxic"
4.5,2.3,1.3,0.3,"setosa","green",NA
4.5,2.3,1.3,0.3,"setosa","blue",NA
4.5,2.3,1.3,0.3,"setosa","orange","NonToxic"
4.5,2.3,1.3,0.3,"setosa","purple","Toxic"
4.4,3.2,1.3,0.2,"setosa","red","Toxic"
4.4,3.2,1.3,0.2,"setosa","green",NA
4.4,3.2,1.3,0.2,"setosa","blue",NA
4.4,3.2,1.3,0.2,"setosa","orange","NonToxic"
4.4,3.2,1.3,0.2,"setosa","purple","Toxic"
5,3.5,1.6,0.6,"setosa","red","Toxic"
5,3.5,1.6,0.6,"setosa","green",NA
5,3.5,1.6,0.6,"setosa","blue",NA
5,3.5,1.6,0.6,"setosa","orange","NonToxic"
5,3.5,1.6,0.6,"setosa","purple","Toxic"
5.1,3.8,1.9,0.4,"setosa","red","Toxic"
5.1,3.8,1.9,0.4,"setosa","green",NA
5.1,3.8,1.9,0.4,"setosa","blue",NA
5.1,3.8,1.9,0.4,"setosa","orange","NonToxic"
5.1,3.8,1.9,0.4,"setosa","purple","Toxic"
4.8,3,1.4,0.3,"setosa","red","Toxic"
4.8,3,1.4,0.3,"setosa","green",NA
4.8,3,1.4,0.3,"setosa","blue",NA
4.8,3,1.4,0.3,"setosa","orange","NonToxic"
4.8,3,1.4,0.3,"setosa","purple","Toxic"
5.1,3.8,1.6,0.2,"setosa","red","Toxic"
5.1,3.8,1.6,0.2,"setosa","green",NA
5.1,3.8,1.6,0.2,"setosa","blue",NA
5.1,3.8,1.6,0.2,"setosa","orange","NonToxic"
5.1,3.8,1.6,0.2,"setosa","purple","Toxic"
4.6,3.2,1.4,0.2,"setosa","red","Toxic"
4.6,3.2,1.4,0.2,"setosa","green",NA
4.6,3.2,1.4,0.2,"setosa","blue",NA
4.6,3.2,1.4,0.2,"setosa","orange","NonToxic"
4.6,3.2,1.4,0.2,"setosa","purple","Toxic"
5.3,3.7,1.5,0.2,"setosa","red","Toxic"
5.3,3.7,1.5,0.2,"setosa","green",NA
5.3,3.7,1.5,0.2,"setosa","blue",NA
5.3,3.7,1.5,0.2,"setosa","orange","NonToxic"
5.3,3.7,1.5,0.2,"setosa","purple","Toxic"
5,3.3,1.4,0.2,"setosa","red","Toxic"
5,3.3,1.4,0.2,"setosa","green",NA
5,3.3,1.4,0.2,"setosa","blue",NA
5,3.3,1.4,0.2,"setosa","orange","NonToxic"
5,3.3,1.4,0.2,"setosa","purple","Toxic"
7,3.2,4.7,1.4,"versicolor","red","NonToxic"
7,3.2,4.7,1.4,"versicolor","green","Toxic"
7,3.2,4.7,1.4,"versicolor","blue","NonToxic"
7,3.2,4.7,1.4,"versicolor","orange","NonToxic"
7,3.2,4.7,1.4,"versicolor","purple","NonToxic"
6.4,3.2,4.5,1.5,"versicolor","red","NonToxic"
6.4,3.2,4.5,1.5,"versicolor","green","Toxic"
6.4,3.2,4.5,1.5,"versicolor","blue","NonToxic"
6.4,3.2,4.5,1.5,"versicolor","orange","NonToxic"
6.4,3.2,4.5,1.5,"versicolor","purple","NonToxic"
6.9,3.1,4.9,1.5,"versicolor","red","NonToxic"
6.9,3.1,4.9,1.5,"versicolor","green","Toxic"
6.9,3.1,4.9,1.5,"versicolor","blue","NonToxic"
6.9,3.1,4.9,1.5,"versicolor","orange","NonToxic"
6.9,3.1,4.9,1.5,"versicolor","purple","NonToxic"
5.5,2.3,4,1.3,"versicolor","red","NonToxic"
5.5,2.3,4,1.3,"versicolor","green","Toxic"
5.5,2.3,4,1.3,"versicolor","blue","NonToxic"
5.5,2.3,4,1.3,"versicolor","orange","NonToxic"
5.5,2.3,4,1.3,"versicolor","purple","NonToxic"
6.5,2.8,4.6,1.5,"versicolor","red","NonToxic"
6.5,2.8,4.6,1.5,"versicolor","green","Toxic"
6.5,2.8,4.6,1.5,"versicolor","blue","NonToxic"
6.5,2.8,4.6,1.5,"versicolor","orange","NonToxic"
6.5,2.8,4.6,1.5,"versicolor","purple","NonToxic"
5.7,2.8,4.5,1.3,"versicolor","red","NonToxic"
5.7,2.8,4.5,1.3,"versicolor","green","Toxic"
5.7,2.8,4.5,1.3,"versicolor","blue","NonToxic"
5.7,2.8,4.5,1.3,"versicolor","orange","NonToxic"
5.7,2.8,4.5,1.3,"versicolor","purple","NonToxic"
6.3,3.3,4.7,1.6,"versicolor","red","NonToxic"
6.3,3.3,4.7,1.6,"versicolor","green","Toxic"
6.3,3.3,4.7,1.6,"versicolor","blue","NonToxic"
6.3,3.3,4.7,1.6,"versicolor","orange","NonToxic"
6.3,3.3,4.7,1.6,"versicolor","purple","NonToxic"
4.9,2.4,3.3,1,"versicolor","red","NonToxic"
4.9,2.4,3.3,1,"versicolor","green","Toxic"
4.9,2.4,3.3,1,"versicolor","blue","NonToxic"
4.9,2.4,3.3,1,"versicolor","orange","NonToxic"
4.9,2.4,3.3,1,"versicolor","purple","NonToxic"
6.6,2.9,4.6,1.3,"versicolor","red","NonToxic"
6.6,2.9,4.6,1.3,"versicolor","green","Toxic"
6.6,2.9,4.6,1.3,"versicolor","blue","NonToxic"
6.6,2.9,4.6,1.3,"versicolor","orange","NonToxic"
6.6,2.9,4.6,1.3,"versicolor","purple","NonToxic"
5.2,2.7,3.9,1.4,"versicolor","red","NonToxic"
5.2,2.7,3.9,1.4,"versicolor","green","Toxic"
5.2,2.7,3.9,1.4,"versicolor","blue","NonToxic"
5.2,2.7,3.9,1.4,"versicolor","orange","NonToxic"
5.2,2.7,3.9,1.4,"versicolor","purple","NonToxic"
5,2,3.5,1,"versicolor","red","NonToxic"
5,2,3.5,1,"versicolor","green","Toxic"
5,2,3.5,1,"versicolor","blue","NonToxic"
5,2,3.5,1,"versicolor","orange","NonToxic"
5,2,3.5,1,"versicolor","purple","NonToxic"
5.9,3,4.2,1.5,"versicolor","red","NonToxic"
5.9,3,4.2,1.5,"versicolor","green","Toxic"
5.9,3,4.2,1.5,"versicolor","blue","NonToxic"
5.9,3,4.2,1.5,"versicolor","orange","NonToxic"
5.9,3,4.2,1.5,"versicolor","purple","NonToxic"
6,2.2,4,1,"versicolor","red","NonToxic"
6,2.2,4,1,"versicolor","green","Toxic"
6,2.2,4,1,"versicolor","blue","NonToxic"
6,2.2,4,1,"versicolor","orange","NonToxic"
6,2.2,4,1,"versicolor","purple","NonToxic"
6.1,2.9,4.7,1.4,"versicolor","red","NonToxic"
6.1,2.9,4.7,1.4,"versicolor","green","Toxic"
6.1,2.9,4.7,1.4,"versicolor","blue","NonToxic"
6.1,2.9,4.7,1.4,"versicolor","orange","NonToxic"
6.1,2.9,4.7,1.4,"versicolor","purple","NonToxic"
5.6,2.9,3.6,1.3,"versicolor","red","NonToxic"
5.6,2.9,3.6,1.3,"versicolor","green","Toxic"
5.6,2.9,3.6,1.3,"versicolor","blue","NonToxic"
5.6,2.9,3.6,1.3,"versicolor","orange","NonToxic"
5.6,2.9,3.6,1.3,"versicolor","purple","NonToxic"
6.7,3.1,4.4,1.4,"versicolor","red","NonToxic"
6.7,3.1,4.4,1.4,"versicolor","green","Toxic"
6.7,3.1,4.4,1.4,"versicolor","blue","NonToxic"
6.7,3.1,4.4,1.4,"versicolor","orange","NonToxic"
6.7,3.1,4.4,1.4,"versicolor","purple","NonToxic"
5.6,3,4.5,1.5,"versicolor","red","NonToxic"
5.6,3,4.5,1.5,"versicolor","green","Toxic"
5.6,3,4.5,1.5,"versicolor","blue","NonToxic"
5.6,3,4.5,1.5,"versicolor","orange","NonToxic"
5.6,3,4.5,1.5,"versicolor","purple","NonToxic"
5.8,2.7,4.1,1,"versicolor","red","NonToxic"
5.8,2.7,4.1,1,"versicolor","green","Toxic"
5.8,2.7,4.1,1,"versicolor","blue","NonToxic"
5.8,2.7,4.1,1,"versicolor","orange","NonToxic"
5.8,2.7,4.1,1,"versicolor","purple","NonToxic"
6.2,2.2,4.5,1.5,"versicolor","red","NonToxic"
6.2,2.2,4.5,1.5,"versicolor","green","Toxic"
6.2,2.2,4.5,1.5,"versicolor","blue","NonToxic"
6.2,2.2,4.5,1.5,"versicolor","orange","NonToxic"
6.2,2.2,4.5,1.5,"versicolor","purple","NonToxic"
5.6,2.5,3.9,1.1,"versicolor","red","NonToxic"
5.6,2.5,3.9,1.1,"versicolor","green","Toxic"
5.6,2.5,3.9,1.1,"versicolor","blue","NonToxic"
5.6,2.5,3.9,1.1,"versicolor","orange","NonToxic"
5.6,2.5,3.9,1.1,"versicolor","purple","NonToxic"
5.9,3.2,4.8,1.8,"versicolor","red","NonToxic"
5.9,3.2,4.8,1.8,"versicolor","green","Toxic"
5.9,3.2,4.8,1.8,"versicolor","blue","NonToxic"
5.9,3.2,4.8,1.8,"versicolor","orange","NonToxic"
5.9,3.2,4.8,1.8,"versicolor","purple","NonToxic"
6.1,2.8,4,1.3,"versicolor","red","NonToxic"
6.1,2.8,4,1.3,"versicolor","green","Toxic"
6.1,2.8,4,1.3,"versicolor","blue","NonToxic"
6.1,2.8,4,1.3,"versicolor","orange","NonToxic"
6.1,2.8,4,1.3,"versicolor","purple","NonToxic"
6.3,2.5,4.9,1.5,"versicolor","red","NonToxic"
6.3,2.5,4.9,1.5,"versicolor","green","Toxic"
6.3,2.5,4.9,1.5,"versicolor","blue","NonToxic"
6.3,2.5,4.9,1.5,"versicolor","orange","NonToxic"
6.3,2.5,4.9,1.5,"versicolor","purple","NonToxic"
6.1,2.8,4.7,1.2,"versicolor","red","NonToxic"
6.1,2.8,4.7,1.2,"versicolor","green","Toxic"
6.1,2.8,4.7,1.2,"versicolor","blue","NonToxic"
6.1,2.8,4.7,1.2,"versicolor","orange","NonToxic"
6.1,2.8,4.7,1.2,"versicolor","purple","NonToxic"
6.4,2.9,4.3,1.3,"versicolor","red","NonToxic"
6.4,2.9,4.3,1.3,"versicolor","green","Toxic"
6.4,2.9,4.3,1.3,"versicolor","blue","NonToxic"
6.4,2.9,4.3,1.3,"versicolor","orange","NonToxic"
6.4,2.9,4.3,1.3,"versicolor","purple","NonToxic"
6.6,3,4.4,1.4,"versicolor","red","NonToxic"
6.6,3,4.4,1.4,"versicolor","green","Toxic"
6.6,3,4.4,1.4,"versicolor","blue","NonToxic"
6.6,3,4.4,1.4,"versicolor","orange","NonToxic"
6.6,3,4.4,1.4,"versicolor","purple","NonToxic"
6.8,2.8,4.8,1.4,"versicolor","red","NonToxic"
6.8,2.8,4.8,1.4,"versicolor","green","Toxic"
6.8,2.8,4.8,1.4,"versicolor","blue","NonToxic"
6.8,2.8,4.8,1.4,"versicolor","orange","NonToxic"
6.8,2.8,4.8,1.4,"versicolor","purple","NonToxic"
6.7,3,5,1.7,"versicolor","red","NonToxic"
6.7,3,5,1.7,"versicolor","green","Toxic"
6.7,3,5,1.7,"versicolor","blue","NonToxic"
6.7,3,5,1.7,"versicolor","orange","NonToxic"
6.7,3,5,1.7,"versicolor","purple","NonToxic"
6,2.9,4.5,1.5,"versicolor","red","NonToxic"
6,2.9,4.5,1.5,"versicolor","green","Toxic"
6,2.9,4.5,1.5,"versicolor","blue","NonToxic"
6,2.9,4.5,1.5,"versicolor","orange","NonToxic"
6,2.9,4.5,1.5,"versicolor","purple","NonToxic"
5.7,2.6,3.5,1,"versicolor","red","NonToxic"
5.7,2.6,3.5,1,"versicolor","green","Toxic"
5.7,2.6,3.5,1,"versicolor","blue","NonToxic"
5.7,2.6,3.5,1,"versicolor","orange","NonToxic"
5.7,2.6,3.5,1,"versicolor","purple","NonToxic"
5.5,2.4,3.8,1.1,"versicolor","red","NonToxic"
5.5,2.4,3.8,1.1,"versicolor","green","Toxic"
5.5,2.4,3.8,1.1,"versicolor","blue","NonToxic"
5.5,2.4,3.8,1.1,"versicolor","orange","NonToxic"
5.5,2.4,3.8,1.1,"versicolor","purple","NonToxic"
5.5,2.4,3.7,1,"versicolor","red","NonToxic"
5.5,2.4,3.7,1,"versicolor","green","Toxic"
5.5,2.4,3.7,1,"versicolor","blue","NonToxic"
5.5,2.4,3.7,1,"versicolor","orange","NonToxic"
5.5,2.4,3.7,1,"versicolor","purple","NonToxic"
5.8,2.7,3.9,1.2,"versicolor","red","NonToxic"
5.8,2.7,3.9,1.2,"versicolor","green","Toxic"
5.8,2.7,3.9,1.2,"versicolor","blue","NonToxic"
5.8,2.7,3.9,1.2,"versicolor","orange","NonToxic"
5.8,2.7,3.9,1.2,"versicolor","purple","NonToxic"
6,2.7,5.1,1.6,"versicolor","red","NonToxic"
6,2.7,5.1,1.6,"versicolor","green","Toxic"
6,2.7,5.1,1.6,"versicolor","blue","NonToxic"
6,2.7,5.1,1.6,"versicolor","orange","NonToxic"
6,2.7,5.1,1.6,"versicolor","purple","NonToxic"
5.4,3,4.5,1.5,"versicolor","red","NonToxic"
5.4,3,4.5,1.5,"versicolor","green","Toxic"
5.4,3,4.5,1.5,"versicolor","blue","NonToxic"
5.4,3,4.5,1.5,"versicolor","orange","NonToxic"
5.4,3,4.5,1.5,"versicolor","purple","NonToxic"
6,3.4,4.5,1.6,"versicolor","red","NonToxic"
6,3.4,4.5,1.6,"versicolor","green","Toxic"
6,3.4,4.5,1.6,"versicolor","blue","NonToxic"
6,3.4,4.5,1.6,"versicolor","orange","NonToxic"
6,3.4,4.5,1.6,"versicolor","purple","NonToxic"
6.7,3.1,4.7,1.5,"versicolor","red","NonToxic"
6.7,3.1,4.7,1.5,"versicolor","green","Toxic"
6.7,3.1,4.7,1.5,"versicolor","blue","NonToxic"
6.7,3.1,4.7,1.5,"versicolor","orange","NonToxic"
6.7,3.1,4.7,1.5,"versicolor","purple","NonToxic"
6.3,2.3,4.4,1.3,"versicolor","red","NonToxic"
6.3,2.3,4.4,1.3,"versicolor","green","Toxic"
6.3,2.3,4.4,1.3,"versicolor","blue","NonToxic"
6.3,2.3,4.4,1.3,"versicolor","orange","NonToxic"
6.3,2.3,4.4,1.3,"versicolor","purple","NonToxic"
5.6,3,4.1,1.3,"versicolor","red","NonToxic"
5.6,3,4.1,1.3,"versicolor","green","Toxic"
5.6,3,4.1,1.3,"versicolor","blue","NonToxic"
5.6,3,4.1,1.3,"versicolor","orange","NonToxic"
5.6,3,4.1,1.3,"versicolor","purple","NonToxic"
5.5,2.5,4,1.3,"versicolor","red","NonToxic"
5.5,2.5,4,1.3,"versicolor","green","Toxic"
5.5,2.5,4,1.3,"versicolor","blue","NonToxic"
5.5,2.5,4,1.3,"versicolor","orange","NonToxic"
5.5,2.5,4,1.3,"versicolor","purple","NonToxic"
5.5,2.6,4.4,1.2,"versicolor","red","NonToxic"
5.5,2.6,4.4,1.2,"versicolor","green","Toxic"
5.5,2.6,4.4,1.2,"versicolor","blue","NonToxic"
5.5,2.6,4.4,1.2,"versicolor","orange","NonToxic"
5.5,2.6,4.4,1.2,"versicolor","purple","NonToxic"
6.1,3,4.6,1.4,"versicolor","red","NonToxic"
6.1,3,4.6,1.4,"versicolor","green","Toxic"
6.1,3,4.6,1.4,"versicolor","blue","NonToxic"
6.1,3,4.6,1.4,"versicolor","orange","NonToxic"
6.1,3,4.6,1.4,"versicolor","purple","NonToxic"
5.8,2.6,4,1.2,"versicolor","red","NonToxic"
5.8,2.6,4,1.2,"versicolor","green","Toxic"
5.8,2.6,4,1.2,"versicolor","blue","NonToxic"
5.8,2.6,4,1.2,"versicolor","orange","NonToxic"
5.8,2.6,4,1.2,"versicolor","purple","NonToxic"
5,2.3,3.3,1,"versicolor","red","NonToxic"
5,2.3,3.3,1,"versicolor","green","Toxic"
5,2.3,3.3,1,"versicolor","blue","NonToxic"
5,2.3,3.3,1,"versicolor","orange","NonToxic"
5,2.3,3.3,1,"versicolor","purple","NonToxic"
5.6,2.7,4.2,1.3,"versicolor","red","NonToxic"
5.6,2.7,4.2,1.3,"versicolor","green","Toxic"
5.6,2.7,4.2,1.3,"versicolor","blue","NonToxic"
5.6,2.7,4.2,1.3,"versicolor","orange","NonToxic"
5.6,2.7,4.2,1.3,"versicolor","purple","NonToxic"
5.7,3,4.2,1.2,"versicolor","red","NonToxic"
5.7,3,4.2,1.2,"versicolor","green","Toxic"
5.7,3,4.2,1.2,"versicolor","blue","NonToxic"
5.7,3,4.2,1.2,"versicolor","orange","NonToxic"
5.7,3,4.2,1.2,"versicolor","purple","NonToxic"
5.7,2.9,4.2,1.3,"versicolor","red","NonToxic"
5.7,2.9,4.2,1.3,"versicolor","green","Toxic"
5.7,2.9,4.2,1.3,"versicolor","blue","NonToxic"
5.7,2.9,4.2,1.3,"versicolor","orange","NonToxic"
5.7,2.9,4.2,1.3,"versicolor","purple","NonToxic"
6.2,2.9,4.3,1.3,"versicolor","red","NonToxic"
6.2,2.9,4.3,1.3,"versicolor","green","Toxic"
6.2,2.9,4.3,1.3,"versicolor","blue","NonToxic"
6.2,2.9,4.3,1.3,"versicolor","orange","NonToxic"
6.2,2.9,4.3,1.3,"versicolor","purple","NonToxic"
5.1,2.5,3,1.1,"versicolor","red","NonToxic"
5.1,2.5,3,1.1,"versicolor","green","Toxic"
5.1,2.5,3,1.1,"versicolor","blue","NonToxic"
5.1,2.5,3,1.1,"versicolor","orange","NonToxic"
5.1,2.5,3,1.1,"versicolor","purple","NonToxic"
5.7,2.8,4.1,1.3,"versicolor","red","NonToxic"
5.7,2.8,4.1,1.3,"versicolor","green","Toxic"
5.7,2.8,4.1,1.3,"versicolor","blue","NonToxic"
5.7,2.8,4.1,1.3,"versicolor","orange","NonToxic"
5.7,2.8,4.1,1.3,"versicolor","purple","NonToxic"
6.3,3.3,6,2.5,"virginica","red","NonToxic"
6.3,3.3,6,2.5,"virginica","green","Toxic"
6.3,3.3,6,2.5,"virginica","blue",NA
6.3,3.3,6,2.5,"virginica","orange","Toxic"
6.3,3.3,6,2.5,"virginica","purple","NonToxic"
5.8,2.7,5.1,1.9,"virginica","red","NonToxic"
5.8,2.7,5.1,1.9,"virginica","green","Toxic"
5.8,2.7,5.1,1.9,"virginica","blue",NA
5.8,2.7,5.1,1.9,"virginica","orange","Toxic"
5.8,2.7,5.1,1.9,"virginica","purple","NonToxic"
7.1,3,5.9,2.1,"virginica","red","NonToxic"
7.1,3,5.9,2.1,"virginica","green","Toxic"
7.1,3,5.9,2.1,"virginica","blue",NA
7.1,3,5.9,2.1,"virginica","orange","Toxic"
7.1,3,5.9,2.1,"virginica","purple","NonToxic"
6.3,2.9,5.6,1.8,"virginica","red","NonToxic"
6.3,2.9,5.6,1.8,"virginica","green","Toxic"
6.3,2.9,5.6,1.8,"virginica","blue",NA
6.3,2.9,5.6,1.8,"virginica","orange","Toxic"
6.3,2.9,5.6,1.8,"virginica","purple","NonToxic"
6.5,3,5.8,2.2,"virginica","red","NonToxic"
6.5,3,5.8,2.2,"virginica","green","Toxic"
6.5,3,5.8,2.2,"virginica","blue",NA
6.5,3,5.8,2.2,"virginica","orange","Toxic"
6.5,3,5.8,2.2,"virginica","purple","NonToxic"
7.6,3,6.6,2.1,"virginica","red","NonToxic"
7.6,3,6.6,2.1,"virginica","green","Toxic"
7.6,3,6.6,2.1,"virginica","blue",NA
7.6,3,6.6,2.1,"virginica","orange","Toxic"
7.6,3,6.6,2.1,"virginica","purple","NonToxic"
4.9,2.5,4.5,1.7,"virginica","red","NonToxic"
4.9,2.5,4.5,1.7,"virginica","green","Toxic"
4.9,2.5,4.5,1.7,"virginica","blue",NA
4.9,2.5,4.5,1.7,"virginica","orange","Toxic"
4.9,2.5,4.5,1.7,"virginica","purple","NonToxic"
7.3,2.9,6.3,1.8,"virginica","red","NonToxic"
7.3,2.9,6.3,1.8,"virginica","green","Toxic"
7.3,2.9,6.3,1.8,"virginica","blue",NA
7.3,2.9,6.3,1.8,"virginica","orange","Toxic"
7.3,2.9,6.3,1.8,"virginica","purple","NonToxic"
6.7,2.5,5.8,1.8,"virginica","red","NonToxic"
6.7,2.5,5.8,1.8,"virginica","green","Toxic"
6.7,2.5,5.8,1.8,"virginica","blue",NA
6.7,2.5,5.8,1.8,"virginica","orange","Toxic"
6.7,2.5,5.8,1.8,"virginica","purple","NonToxic"
7.2,3.6,6.1,2.5,"virginica","red","NonToxic"
7.2,3.6,6.1,2.5,"virginica","green","Toxic"
7.2,3.6,6.1,2.5,"virginica","blue",NA
7.2,3.6,6.1,2.5,"virginica","orange","Toxic"
7.2,3.6,6.1,2.5,"virginica","purple","NonToxic"
6.5,3.2,5.1,2,"virginica","red","NonToxic"
6.5,3.2,5.1,2,"virginica","green","Toxic"
6.5,3.2,5.1,2,"virginica","blue",NA
6.5,3.2,5.1,2,"virginica","orange","Toxic"
6.5,3.2,5.1,2,"virginica","purple","NonToxic"
6.4,2.7,5.3,1.9,"virginica","red","NonToxic"
6.4,2.7,5.3,1.9,"virginica","green","Toxic"
6.4,2.7,5.3,1.9,"virginica","blue",NA
6.4,2.7,5.3,1.9,"virginica","orange","Toxic"
6.4,2.7,5.3,1.9,"virginica","purple","NonToxic"
6.8,3,5.5,2.1,"virginica","red","NonToxic"
6.8,3,5.5,2.1,"virginica","green","Toxic"
6.8,3,5.5,2.1,"virginica","blue",NA
6.8,3,5.5,2.1,"virginica","orange","Toxic"
6.8,3,5.5,2.1,"virginica","purple","NonToxic"
5.7,2.5,5,2,"virginica","red","NonToxic"
5.7,2.5,5,2,"virginica","green","Toxic"
5.7,2.5,5,2,"virginica","blue",NA
5.7,2.5,5,2,"virginica","orange","Toxic"
5.7,2.5,5,2,"virginica","purple","NonToxic"
5.8,2.8,5.1,2.4,"virginica","red","NonToxic"
5.8,2.8,5.1,2.4,"virginica","green","Toxic"
5.8,2.8,5.1,2.4,"virginica","blue",NA
5.8,2.8,5.1,2.4,"virginica","orange","Toxic"
5.8,2.8,5.1,2.4,"virginica","purple","NonToxic"
6.4,3.2,5.3,2.3,"virginica","red","NonToxic"
6.4,3.2,5.3,2.3,"virginica","green","Toxic"
6.4,3.2,5.3,2.3,"virginica","blue",NA
6.4,3.2,5.3,2.3,"virginica","orange","Toxic"
6.4,3.2,5.3,2.3,"virginica","purple","NonToxic"
6.5,3,5.5,1.8,"virginica","red","NonToxic"
6.5,3,5.5,1.8,"virginica","green","Toxic"
6.5,3,5.5,1.8,"virginica","blue",NA
6.5,3,5.5,1.8,"virginica","orange","Toxic"
6.5,3,5.5,1.8,"virginica","purple","NonToxic"
7.7,3.8,6.7,2.2,"virginica","red","NonToxic"
7.7,3.8,6.7,2.2,"virginica","green","Toxic"
7.7,3.8,6.7,2.2,"virginica","blue",NA
7.7,3.8,6.7,2.2,"virginica","orange","Toxic"
7.7,3.8,6.7,2.2,"virginica","purple","NonToxic"
7.7,2.6,6.9,2.3,"virginica","red","NonToxic"
7.7,2.6,6.9,2.3,"virginica","green","Toxic"
7.7,2.6,6.9,2.3,"virginica","blue",NA
7.7,2.6,6.9,2.3,"virginica","orange","Toxic"
7.7,2.6,6.9,2.3,"virginica","purple","NonToxic"
6,2.2,5,1.5,"virginica","red","NonToxic"
6,2.2,5,1.5,"virginica","green","Toxic"
6,2.2,5,1.5,"virginica","blue",NA
6,2.2,5,1.5,"virginica","orange","Toxic"
6,2.2,5,1.5,"virginica","purple","NonToxic"
6.9,3.2,5.7,2.3,"virginica","red","NonToxic"
6.9,3.2,5.7,2.3,"virginica","green","Toxic"
6.9,3.2,5.7,2.3,"virginica","blue",NA
6.9,3.2,5.7,2.3,"virginica","orange","Toxic"
6.9,3.2,5.7,2.3,"virginica","purple","NonToxic"
5.6,2.8,4.9,2,"virginica","red","NonToxic"
5.6,2.8,4.9,2,"virginica","green","Toxic"
5.6,2.8,4.9,2,"virginica","blue",NA
5.6,2.8,4.9,2,"virginica","orange","Toxic"
5.6,2.8,4.9,2,"virginica","purple","NonToxic"
7.7,2.8,6.7,2,"virginica","red","NonToxic"
7.7,2.8,6.7,2,"virginica","green","Toxic"
7.7,2.8,6.7,2,"virginica","blue",NA
7.7,2.8,6.7,2,"virginica","orange","Toxic"
7.7,2.8,6.7,2,"virginica","purple","NonToxic"
6.3,2.7,4.9,1.8,"virginica","red","NonToxic"
6.3,2.7,4.9,1.8,"virginica","green","Toxic"
6.3,2.7,4.9,1.8,"virginica","blue",NA
6.3,2.7,4.9,1.8,"virginica","orange","Toxic"
6.3,2.7,4.9,1.8,"virginica","purple","NonToxic"
6.7,3.3,5.7,2.1,"virginica","red","NonToxic"
6.7,3.3,5.7,2.1,"virginica","green","Toxic"
6.7,3.3,5.7,2.1,"virginica","blue",NA
6.7,3.3,5.7,2.1,"virginica","orange","Toxic"
6.7,3.3,5.7,2.1,"virginica","purple","NonToxic"
7.2,3.2,6,1.8,"virginica","red","NonToxic"
7.2,3.2,6,1.8,"virginica","green","Toxic"
7.2,3.2,6,1.8,"virginica","blue",NA
7.2,3.2,6,1.8,"virginica","orange","Toxic"
7.2,3.2,6,1.8,"virginica","purple","NonToxic"
6.2,2.8,4.8,1.8,"virginica","red","NonToxic"
6.2,2.8,4.8,1.8,"virginica","green","Toxic"
6.2,2.8,4.8,1.8,"virginica","blue",NA
6.2,2.8,4.8,1.8,"virginica","orange","Toxic"
6.2,2.8,4.8,1.8,"virginica","purple","NonToxic"
6.1,3,4.9,1.8,"virginica","red","NonToxic"
6.1,3,4.9,1.8,"virginica","green","Toxic"
6.1,3,4.9,1.8,"virginica","blue",NA
6.1,3,4.9,1.8,"virginica","orange","Toxic"
6.1,3,4.9,1.8,"virginica","purple","NonToxic"
6.4,2.8,5.6,2.1,"virginica","red","NonToxic"
6.4,2.8,5.6,2.1,"virginica","green","Toxic"
6.4,2.8,5.6,2.1,"virginica","blue",NA
6.4,2.8,5.6,2.1,"virginica","orange","Toxic"
6.4,2.8,5.6,2.1,"virginica","purple","NonToxic"
7.2,3,5.8,1.6,"virginica","red","NonToxic"
7.2,3,5.8,1.6,"virginica","green","Toxic"
7.2,3,5.8,1.6,"virginica","blue",NA
7.2,3,5.8,1.6,"virginica","orange","Toxic"
7.2,3,5.8,1.6,"virginica","purple","NonToxic"
7.4,2.8,6.1,1.9,"virginica","red","NonToxic"
7.4,2.8,6.1,1.9,"virginica","green","Toxic"
7.4,2.8,6.1,1.9,"virginica","blue",NA
7.4,2.8,6.1,1.9,"virginica","orange","Toxic"
7.4,2.8,6.1,1.9,"virginica","purple","NonToxic"
7.9,3.8,6.4,2,"virginica","red","NonToxic"
7.9,3.8,6.4,2,"virginica","green","Toxic"
7.9,3.8,6.4,2,"virginica","blue",NA
7.9,3.8,6.4,2,"virginica","orange","Toxic"
7.9,3.8,6.4,2,"virginica","purple","NonToxic"
6.4,2.8,5.6,2.2,"virginica","red","NonToxic"
6.4,2.8,5.6,2.2,"virginica","green","Toxic"
6.4,2.8,5.6,2.2,"virginica","blue",NA
6.4,2.8,5.6,2.2,"virginica","orange","Toxic"
6.4,2.8,5.6,2.2,"virginica","purple","NonToxic"
6.3,2.8,5.1,1.5,"virginica","red","NonToxic"
6.3,2.8,5.1,1.5,"virginica","green","Toxic"
6.3,2.8,5.1,1.5,"virginica","blue",NA
6.3,2.8,5.1,1.5,"virginica","orange","Toxic"
6.3,2.8,5.1,1.5,"virginica","purple","NonToxic"
6.1,2.6,5.6,1.4,"virginica","red","NonToxic"
6.1,2.6,5.6,1.4,"virginica","green","Toxic"
6.1,2.6,5.6,1.4,"virginica","blue",NA
6.1,2.6,5.6,1.4,"virginica","orange","Toxic"
6.1,2.6,5.6,1.4,"virginica","purple","NonToxic"
7.7,3,6.1,2.3,"virginica","red","NonToxic"
7.7,3,6.1,2.3,"virginica","green","Toxic"
7.7,3,6.1,2.3,"virginica","blue",NA
7.7,3,6.1,2.3,"virginica","orange","Toxic"
7.7,3,6.1,2.3,"virginica","purple","NonToxic"
6.3,3.4,5.6,2.4,"virginica","red","NonToxic"
6.3,3.4,5.6,2.4,"virginica","green","Toxic"
6.3,3.4,5.6,2.4,"virginica","blue",NA
6.3,3.4,5.6,2.4,"virginica","orange","Toxic"
6.3,3.4,5.6,2.4,"virginica","purple","NonToxic"
6.4,3.1,5.5,1.8,"virginica","red","NonToxic"
6.4,3.1,5.5,1.8,"virginica","green","Toxic"
6.4,3.1,5.5,1.8,"virginica","blue",NA
6.4,3.1,5.5,1.8,"virginica","orange","Toxic"
6.4,3.1,5.5,1.8,"virginica","purple","NonToxic"
6,3,4.8,1.8,"virginica","red","NonToxic"
6,3,4.8,1.8,"virginica","green","Toxic"
6,3,4.8,1.8,"virginica","blue",NA
6,3,4.8,1.8,"virginica","orange","Toxic"
6,3,4.8,1.8,"virginica","purple","NonToxic"
6.9,3.1,5.4,2.1,"virginica","red","NonToxic"
6.9,3.1,5.4,2.1,"virginica","green","Toxic"
6.9,3.1,5.4,2.1,"virginica","blue",NA
6.9,3.1,5.4,2.1,"virginica","orange","Toxic"
6.9,3.1,5.4,2.1,"virginica","purple","NonToxic"
6.7,3.1,5.6,2.4,"virginica","red","NonToxic"
6.7,3.1,5.6,2.4,"virginica","green","Toxic"
6.7,3.1,5.6,2.4,"virginica","blue",NA
6.7,3.1,5.6,2.4,"virginica","orange","Toxic"
6.7,3.1,5.6,2.4,"virginica","purple","NonToxic"
6.9,3.1,5.1,2.3,"virginica","red","NonToxic"
6.9,3.1,5.1,2.3,"virginica","green","Toxic"
6.9,3.1,5.1,2.3,"virginica","blue",NA
6.9,3.1,5.1,2.3,"virginica","orange","Toxic"
6.9,3.1,5.1,2.3,"virginica","purple","NonToxic"
5.8,2.7,5.1,1.9,"virginica","red","NonToxic"
5.8,2.7,5.1,1.9,"virginica","green","Toxic"
5.8,2.7,5.1,1.9,"virginica","blue",NA
5.8,2.7,5.1,1.9,"virginica","orange","Toxic"
5.8,2.7,5.1,1.9,"virginica","purple","NonToxic"
6.8,3.2,5.9,2.3,"virginica","red","NonToxic"
6.8,3.2,5.9,2.3,"virginica","green","Toxic"
6.8,3.2,5.9,2.3,"virginica","blue",NA
6.8,3.2,5.9,2.3,"virginica","orange","Toxic"
6.8,3.2,5.9,2.3,"virginica","purple","NonToxic"
6.7,3.3,5.7,2.5,"virginica","red","NonToxic"
6.7,3.3,5.7,2.5,"virginica","green","Toxic"
6.7,3.3,5.7,2.5,"virginica","blue",NA
6.7,3.3,5.7,2.5,"virginica","orange","Toxic"
6.7,3.3,5.7,2.5,"virginica","purple","NonToxic"
6.7,3,5.2,2.3,"virginica","red","NonToxic"
6.7,3,5.2,2.3,"virginica","green","Toxic"
6.7,3,5.2,2.3,"virginica","blue",NA
6.7,3,5.2,2.3,"virginica","orange","Toxic"
6.7,3,5.2,2.3,"virginica","purple","NonToxic"
6.3,2.5,5,1.9,"virginica","red","NonToxic"
6.3,2.5,5,1.9,"virginica","green","Toxic"
6.3,2.5,5,1.9,"virginica","blue",NA
6.3,2.5,5,1.9,"virginica","orange","Toxic"
6.3,2.5,5,1.9,"virginica","purple","NonToxic"
6.5,3,5.2,2,"virginica","red","NonToxic"
6.5,3,5.2,2,"virginica","green","Toxic"
6.5,3,5.2,2,"virginica","blue",NA
6.5,3,5.2,2,"virginica","orange","Toxic"
6.5,3,5.2,2,"virginica","purple","NonToxic"
6.2,3.4,5.4,2.3,"virginica","red","NonToxic"
6.2,3.4,5.4,2.3,"virginica","green","Toxic"
6.2,3.4,5.4,2.3,"virginica","blue",NA
6.2,3.4,5.4,2.3,"virginica","orange","Toxic"
6.2,3.4,5.4,2.3,"virginica","purple","NonToxic"
5.9,3,5.1,1.8,"virginica","red","NonToxic"
5.9,3,5.1,1.8,"virginica","green","Toxic"
5.9,3,5.1,1.8,"virginica","blue",NA
5.9,3,5.1,1.8,"virginica","orange","Toxic"
5.9,3,5.1,1.8,"virginica","purple","NonToxic"
